{
  "name": "Chinchou",
  "nationalPokedexNumber": 170,
  "primaryType": "water",
  "secondaryType": "electric",
  "abilities": [
    "voltabsorb",
    "illuminate",
    "h:waterabsorb"
  ],
  "baseStats": {
    "hp": 75,
    "attack": 38,
    "defence": 38,
    "special_attack": 56,
    "special_defence": 56,
    "speed": 67
  },
  "catchRate": 190,
  "maleRatio": 0.5,
  "shoulderMountable": false,
  "baseExperienceYield": 66,
  "experienceGroup": "slow",
  "eggCycles": 20,
  "eggGroups": [
    "water_2"
  ],
  "moves": [
    "1:bubble",
    "1:supersonic",
    "1:watergun",
    "4:electroball",
    "8:thunderwave",
    "12:bubblebeam",
    "16:confuseray",
    "20:spark",
    "24:charge",
    "28:discharge",
    "28:signalbeam",
    "32:aquaring",
    "36:flail",
    "40:takedown",
    "44:hydropump",
    "47:iondeluge",
    "egg:agility",
    "egg:amnesia",
    "egg:brine",
    "egg:flail",
    "egg:mist",
    "egg:psybeam",
    "egg:screech",
    "egg:shockwave",
    "egg:soak",
    "egg:waterpulse",
    "egg:whirlpool",
    "tm:agility",
    "tm:amnesia",
    "tm:attract",
    "tm:blizzard",
    "tm:bounce",
    "tm:brine",
    "tm:captivate",
    "tm:chargebeam",
    "tm:confide",
    "tm:dazzlinggleam",
    "tm:dive",
    "tm:doubleteam",
    "tm:electroball",
    "tm:endure",
    "tm:facade",
    "tm:flash",
    "tm:frustration",
    "tm:hail",
    "tm:hiddenpower",
    "tm:hydropump",
    "tm:icebeam",
    "tm:icywind",
    "tm:naturalgift",
    "tm:protect",
    "tm:raindance",
    "tm:rest",
    "tm:return",
    "tm:round",
    "tm:scald",
    "tm:screech",
    "tm:secretpower",
    "tm:shockwave",
    "tm:sleeptalk",
    "tm:snore",
    "tm:substitute",
    "tm:surf",
    "tm:swagger",
    "tm:thunder",
    "tm:thunderbolt",
    "tm:thunderwave",
    "tm:toxic",
    "tm:voltswitch",
    "tm:waterfall",
    "tm:waterpulse",
    "tm:whirlpool",
    "tm:wildcharge",
    "tutor:amnesia",
    "tutor:attract",
    "tutor:bounce",
    "tutor:bubble",
    "tutor:confuseray",
    "tutor:curse",
    "tutor:dive",
    "tutor:doubleedge",
    "tutor:doubleteam",
    "tutor:endure",
    "tutor:flail",
    "tutor:flash",
    "tutor:frustration",
    "tutor:healbell",
    "tutor:hiddenpower",
    "tutor:hydropump",
    "tutor:icywind",
    "tutor:mimic",
    "tutor:protect",
    "tutor:raindance",
    "tutor:rest",
    "tutor:return",
    "tutor:risingvoltage",
    "tutor:screech",
    "tutor:shockwave",
    "tutor:signalbeam",
    "tutor:sleeptalk",
    "tutor:snore",
    "tutor:spark",
    "tutor:substitute",
    "tutor:suckerpunch",
    "tutor:supersonic",
    "tutor:surf",
    "tutor:swagger",
    "tutor:takedown",
    "tutor:thunder",
    "tutor:thunderwave",
    "tutor:toxic",
    "tutor:waterfall",
    "tutor:watergun",
    "tutor:waterpulse",
    "tutor:whirlpool",
    "tutor:zapcannon"
  ],
  "labels": [
    "gen2"
  ],
  "pokedex": [
    "cobblemon.species.chinchou.desc"
  ],
  "evolutions": [
    {
      "id": "chinchou_lanturn",
      "variant": "level_up",
      "result": "lanturn",
      "consumeHeldItem": false,
      "learnableMoves": [
        "spitup",
        "stockpile",
        "swallow"
      ],
      "requirements": [
        {
          "variant": "level",
          "minLevel": 27
        }
      ]
    }
  ],
  "baseScale": 1,
  "hitbox": {
    "width": 1,
    "height": 1,
    "fixed": false
  },
  "baseFriendship": 50,
  "evYield": {
    "hp": 1,
    "attack": 0,
    "defence": 0,
    "special_attack": 0,
    "special_defence": 0,
    "speed": 0
  },
  "height": 5,
  "weight": 120,
  "aspects": [],
  "cannotDynamax": false
}