{
  "name": "Mienfoo",
  "nationalPokedexNumber": 619,
  "primaryType": "fighting",
  "abilities": [
    "innerfocus",
    "regenerator",
    "h:reckless"
  ],
  "baseStats": {
    "hp": 45,
    "attack": 85,
    "defence": 50,
    "special_attack": 55,
    "special_defence": 50,
    "speed": 65
  },
  "catchRate": 180,
  "maleRatio": 0.5,
  "shoulderMountable": false,
  "baseExperienceYield": 70,
  "experienceGroup": "medium_slow",
  "eggCycles": 25,
  "eggGroups": [
    "field",
    "human_like"
  ],
  "moves": [
    "1:detect",
    "1:pound",
    "5:fakeout",
    "5:meditate",
    "10:reversal",
    "15:furyswipes",
    "17:doubleslap",
    "20:quickguard",
    "21:swift",
    "25:forcepalm",
    "30:uturn",
    "35:drainpunch",
    "37:jumpkick",
    "40:honeclaws",
    "45:aurasphere",
    "51:bounce",
    "55:calmmind",
    "60:highjumpkick",
    "egg:allyswitch",
    "egg:batonpass",
    "egg:endure",
    "egg:feint",
    "egg:focuspunch",
    "egg:knockoff",
    "egg:lowkick",
    "egg:mefirst",
    "egg:smellingsalts",
    "egg:vitalthrow",
    "tm:acrobatics",
    "tm:aerialace",
    "tm:agility",
    "tm:allyswitch",
    "tm:attract",
    "tm:aurasphere",
    "tm:batonpass",
    "tm:bounce",
    "tm:brickbreak",
    "tm:bulkup",
    "tm:calmmind",
    "tm:closecombat",
    "tm:confide",
    "tm:dig",
    "tm:doubleteam",
    "tm:drainpunch",
    "tm:endure",
    "tm:facade",
    "tm:fling",
    "tm:focusblast",
    "tm:focusenergy",
    "tm:frustration",
    "tm:grassknot",
    "tm:helpinghand",
    "tm:hiddenpower",
    "tm:lowkick",
    "tm:lowsweep",
    "tm:megakick",
    "tm:megapunch",
    "tm:payback",
    "tm:poisonjab",
    "tm:poweruppunch",
    "tm:protect",
    "tm:psychup",
    "tm:raindance",
    "tm:reflect",
    "tm:rest",
    "tm:retaliate",
    "tm:return",
    "tm:revenge",
    "tm:reversal",
    "tm:rockslide",
    "tm:rocksmash",
    "tm:rocktomb",
    "tm:round",
    "tm:secretpower",
    "tm:sleeptalk",
    "tm:snore",
    "tm:stoneedge",
    "tm:strength",
    "tm:substitute",
    "tm:sunnyday",
    "tm:swagger",
    "tm:swift",
    "tm:swordsdance",
    "tm:taunt",
    "tm:toxic",
    "tm:uturn",
    "tm:workup",
    "tutor:allyswitch",
    "tutor:bounce",
    "tutor:coaching",
    "tutor:drainpunch",
    "tutor:dualchop",
    "tutor:focuspunch",
    "tutor:helpinghand",
    "tutor:knockoff",
    "tutor:lowkick",
    "tutor:roleplay",
    "tutor:sleeptalk",
    "tutor:snore"
  ],
  "labels": [
    "gen5"
  ],
  "pokedex": [
    "cobblemon.species.mienfoo.desc"
  ],
  "evolutions": [
    {
      "id": "mienfoo_mienshao",
      "variant": "level_up",
      "result": "mienshao",
      "consumeHeldItem": false,
      "learnableMoves": [],
      "requirements": [
        {
          "variant": "level",
          "minLevel": 50
        }
      ]
    }
  ],
  "baseScale": 1,
  "hitbox": {
    "width": 1,
    "height": 1,
    "fixed": false
  },
  "baseFriendship": 50,
  "evYield": {
    "hp": 0,
    "attack": 1,
    "defence": 0,
    "special_attack": 0,
    "special_defence": 0,
    "speed": 0
  },
  "height": 9,
  "weight": 200,
  "aspects": [],
  "cannotDynamax": false
}