{
  "implemented": true,
  "name": "Kricketune",
  "nationalPokedexNumber": 402,
  "primaryType": "bug",
  "abilities": [
    "swarm",
    "h:technician"
  ],
  "baseStats": {
    "hp": 77,
    "attack": 85,
    "defence": 51,
    "special_attack": 55,
    "special_defence": 51,
    "speed": 65
  },
  "catchRate": 45,
  "maleRatio": 0.5,
  "shoulderMountable": false,
  "baseExperienceYield": 134,
  "experienceGroup": "medium_slow",
  "eggCycles": 15,
  "eggGroups": [
    "bug"
  ],
  "drops": {
    "amount": "1",
    "entries": [
      {
        "item": "cobblemon:metronome",
        "percentage": 5
      }
    ]
  },
  "moves": [
    "1:bide",
    "1:furycutter",
    "1:growl",
    "1:tackle",
    "10:furycutter",
    "14:absorb",
    "14:leechlife",
    "18:sing",
    "22:focusenergy",
    "26:slash",
    "26:xscissor",
    "30:screech",
    "30:xscissor",
    "34:bugbuzz",
    "34:screech",
    "36:fellstinger",
    "38:perishsong",
    "38:taunt",
    "42:nightslash",
    "44:stickyweb",
    "46:bugbuzz",
    "50:perishsong",
    "tm:aerialace",
    "tm:attract",
    "tm:batonpass",
    "tm:brickbreak",
    "tm:bugbuzz",
    "tm:captivate",
    "tm:confide",
    "tm:cut",
    "tm:doubleteam",
    "tm:echoedvoice",
    "tm:endure",
    "tm:facade",
    "tm:falseswipe",
    "tm:flash",
    "tm:frustration",
    "tm:gigadrain",
    "tm:gigaimpact",
    "tm:helpinghand",
    "tm:hiddenpower",
    "tm:honeclaws",
    "tm:hyperbeam",
    "tm:hypervoice",
    "tm:infestation",
    "tm:leechlife",
    "tm:naturalgift",
    "tm:pounce",
    "tm:poweruppunch",
    "tm:protect",
    "tm:raindance",
    "tm:rest",
    "tm:return",
    "tm:rocksmash",
    "tm:round",
    "tm:secretpower",
    "tm:silverwind",
    "tm:sleeptalk",
    "tm:strength",
    "tm:strugglebug",
    "tm:substitute",
    "tm:sunnyday",
    "tm:swagger",
    "tm:swordsdance",
    "tm:takedown",
    "tm:taunt",
    "tm:terablast",
    "tm:toxic",
    "tm:trailblaze",
    "tm:xscissor",
    "tutor:bugbite",
    "tutor:endeavor",
    "tutor:furycutter",
    "tutor:healbell",
    "tutor:hypervoice",
    "tutor:knockoff",
    "tutor:laserfocus",
    "tutor:mudslap",
    "tutor:sleeptalk",
    "tutor:snore",
    "tutor:stringshot",
    "tutor:throatchop",
    "tutor:uproar"
  ],
  "labels": [
    "gen4"
  ],
  "pokedex": [
    "cobblemon.species.kricketune.desc"
  ],
  "preEvolution": "kricketot",
  "evolutions": [],
  "baseScale": 1,
  "hitbox": {
    "width": 1,
    "height": 1,
    "fixed": false
  },
  "baseFriendship": 70,
  "evYield": {
    "hp": 0,
    "attack": 2,
    "defence": 0,
    "special_attack": 0,
    "special_defence": 0,
    "speed": 0
  },
  "height": 10,
  "weight": 255,
  "aspects": [],
  "cannotDynamax": false
}