{
	"format_version": "1.8.0",
	"animations": {
		"animation.orangemushroom.blink": {
			"animation_length": 0.21,
			"bones": {
				"right_eye": {
					"scale": {
						"0.0": [1, 1, 1],
						"0.0833": [1, 0, 1],
						"0.2083": [1, 1, 1]
					}
				},
				"left_eye": {
					"scale": {
						"0.0": [1, 1, 1],
						"0.0833": [1, 0, 1],
						"0.2083": [1, 1, 1]
					}
				}
			}
		},
		"animation.orangemushroom.ground_idle": {
			"loop": true,
			"bones": {
				"head": {
					"rotation": ["math.sin(query.anim_time * 79.8) * 7.5 * -1", 0, 0]
				}
			}
		},
		"animation.orangemushroom.ground_walk": {
			"loop": true,
			"bones": {
				"orangemushroom": {
					"rotation": ["-math.cos(query.anim_time * 70.8 * 5 * 1.5) * 6 + 6", 0, 0],
					"position": [0, "-math.cos(query.anim_time * 70.8 * 5 * 1.5) * 6 + 6", 0],
					"scale": "1.0 + math.sin(query.anim_time * 70.8 * 5 * 1.5) * 0.05"
				},
				"head": {
					"rotation": ["-math.cos(query.anim_time * 70.8 * 5 * 1.5) * 6 + 6", 0, 0],
					"position": [0, "-math.sin(query.anim_time * 70.8 * 5 * 1.5) * 1.5", 0]
				}
			}
		},
		"animation.orangemushroom.faint": {
			"loop": true,
			"animation_length": 999,
			"bones": {
				"head": {
					"rotation": {
						"0.0": [0, 0, 0],
						"0.3333": [35, 0, 0]
					},
					"position": {
						"0.0": [0, 0, 0],
						"0.3333": [0, -10, 0]
					},
					"scale": {
						"0.0": [1, 1, 1],
						"0.3333": [1, 0.8, 1]
					}
				},
				"whole_body": {
					"scale": {
						"0.0": [1, 1, 1],
						"0.25": [1, 0.4, 1]
					}
				},
				"upper_body": {
					"scale": {
						"0.1667": [1, 1, 1],
						"0.3333": [1, 0.7, 1]
					}
				},
				"down_body": {
					"scale": {
						"0.1667": [1, 1, 1],
						"0.3333": [1, 0.7, 1]
					}
				}
			}
		},
		"animation.orangemushroom.battle_idle": {
			"loop": true,
			"animation_length": 7.58333,
			"bones": {
				"orangemushroom": {
					"position": {
						"0.0": [0, "4 + math.cos(query.anim_time * 372.8 * 1.8) * -4", 0],
						"0.9167": [0, 0, 0],
						"1.0": [0, "4 + math.cos(query.anim_time * 372.8 * 4) * -4", "math.clamp(-6 + math.cos(query.anim_time * 372.8 * 4 ) * 6, - 7, 0)"],
						"2.5417": [0, 0, 0]
					}
				},
				"head": {
					"rotation": {
						"0.0": [0, "math.sin(query.anim_time * 362.8 * 1.8) * 35.5 * -1", 0],
						"0.9167": [0, 0, 0],
						"1.0": ["math.clamp(math.sin(query.anim_time * 368.8 * 2) * 35.5 * -1, 0, 45)", 0, 0],
						"2.5417": [0, 0, 0]
					}
				},
				"whole_body": {
					"rotation": {
						"0.9167": [0, 0, 0],
						"1.0": ["math.clamp(math.sin(query.anim_time * 372.8 * 2) * 35.5 * -1, 0, 45)", 0, 0],
						"2.5417": [0, 0, 0]
					},
					"position": {
						"0.9167": [0, 0, 0],
						"1.0": [0, 0, "math.clamp(math.sin(query.anim_time * 372.8 * 2) * 4 * -1, 0, 45)"],
						"2.5417": [0, 0, 0]
					}
				},
				"upper_body": {
					"rotation": {
						"0.0": [0, "math.sin(query.anim_time * 367.8 * 1.8) * 35.5 * -1", 0],
						"0.9167": [0, 0, 0],
						"1.0": [0, 0, 0],
						"2.5417": [0, 0, 0]
					}
				},
				"down_body": {
					"rotation": {
						"0.0": [0, "math.sin(query.anim_time * 368.8 * 1.8) * 35.5 * -1", 0],
						"1.2083": [0, 0, 0],
						"1.2917": [0, 0, 0],
						"2.5": [0, 0, 0]
					}
				},
				"right_eye": {
					"position": [0, 0, 2]
				},
				"b_right_eye": {
					"position": [0, 0, -1.1]
				},
				"left_eye": {
					"position": [0, 0, 2]
				},
				"b_left_eye": {
					"position": [0, 0, -1.1]
				}
			}
		}
	}
}