{
  "name": "Seviper",
  "nationalPokedexNumber": 336,
  "primaryType": "poison",
  "abilities": [
    "shedskin",
    "h:infiltrator"
  ],
  "baseStats": {
    "hp": 73,
    "attack": 100,
    "defence": 60,
    "special_attack": 100,
    "special_defence": 60,
    "speed": 65
  },
  "catchRate": 90,
  "maleRatio": 0.5,
  "shoulderMountable": false,
  "baseExperienceYield": 160,
  "experienceGroup": "fluctuating",
  "eggCycles": 20,
  "eggGroups": [
    "field",
    "dragon"
  ],
  "moves": [
    "1:swagger",
    "1:wrap",
    "4:bite",
    "6:lick",
    "9:poisontail",
    "11:feint",
    "14:screech",
    "19:glare",
    "21:poisonfang",
    "24:venomdrench",
    "24:venoshock",
    "26:nightslash",
    "29:gastroacid",
    "31:poisonjab",
    "34:haze",
    "36:swordsdance",
    "39:crunch",
    "41:belch",
    "44:coil",
    "46:sludgebomb",
    "46:wringout",
    "egg:assurance",
    "egg:bodyslam",
    "egg:finalgambit",
    "egg:irontail",
    "egg:nightslash",
    "egg:punishment",
    "egg:scaryface",
    "egg:spitup",
    "egg:stockpile",
    "egg:swallow",
    "egg:switcheroo",
    "egg:wringout",
    "tm:acidspray",
    "tm:attract",
    "tm:bodyslam",
    "tm:brickbreak",
    "tm:brutalswing",
    "tm:bulldoze",
    "tm:captivate",
    "tm:confide",
    "tm:crunch",
    "tm:darkpulse",
    "tm:dig",
    "tm:doubleteam",
    "tm:dragontail",
    "tm:earthquake",
    "tm:endure",
    "tm:facade",
    "tm:firefang",
    "tm:flamethrower",
    "tm:frustration",
    "tm:gigadrain",
    "tm:gigaimpact",
    "tm:gunkshot",
    "tm:helpinghand",
    "tm:hiddenpower",
    "tm:hyperbeam",
    "tm:icefang",
    "tm:infestation",
    "tm:ironhead",
    "tm:irontail",
    "tm:naturalgift",
    "tm:payback",
    "tm:poisonjab",
    "tm:poisontail",
    "tm:pounce",
    "tm:protect",
    "tm:psychicfangs",
    "tm:raindance",
    "tm:rest",
    "tm:retaliate",
    "tm:return",
    "tm:reversal",
    "tm:rocksmash",
    "tm:round",
    "tm:scaryface",
    "tm:secretpower",
    "tm:seedbomb",
    "tm:sleeptalk",
    "tm:sludgebomb",
    "tm:sludgewave",
    "tm:snarl",
    "tm:snatch",
    "tm:strength",
    "tm:substitute",
    "tm:sunnyday",
    "tm:swagger",
    "tm:swordsdance",
    "tm:takedown",
    "tm:taunt",
    "tm:terablast",
    "tm:thief",
    "tm:thunderfang",
    "tm:toxic",
    "tm:trailblaze",
    "tm:venoshock",
    "tm:xscissor",
    "tm:zenheadbutt",
    "tutor:aquatail",
    "tutor:bind",
    "tutor:bite",
    "tutor:bodyslam",
    "tutor:crunch",
    "tutor:darkpulse",
    "tutor:doubleedge",
    "tutor:endure",
    "tutor:furycutter",
    "tutor:gastroacid",
    "tutor:gigadrain",
    "tutor:glare",
    "tutor:headbutt",
    "tutor:irontail",
    "tutor:knockoff",
    "tutor:lick",
    "tutor:mimic",
    "tutor:mudslap",
    "tutor:poisontail",
    "tutor:screech",
    "tutor:sleeptalk",
    "tutor:snatch",
    "tutor:snore",
    "tutor:substitute",
    "tutor:suckerpunch",
    "tutor:swagger",
    "tutor:swift",
    "tutor:throatchop",
    "tutor:wrap"
  ],
  "labels": [
    "gen3"
  ],
  "pokedex": [
    "cobblemon.species.seviper.desc"
  ],
  "evolutions": [],
  "baseScale": 1,
  "hitbox": {
    "width": 1,
    "height": 1,
    "fixed": false
  },
  "baseFriendship": 70,
  "evYield": {
    "hp": 0,
    "attack": 1,
    "defence": 0,
    "special_attack": 1,
    "special_defence": 0,
    "speed": 0
  },
  "height": 27,
  "weight": 525,
  "aspects": [],
  "cannotDynamax": false
}