{
  "credit": "EikoBiko",
  "textures": {
    "mint": "cobblemon:block/white_mint_stage_3",
    "particle": "cobblemon:block/white_mint_stage_3"
  },
  "elements": [
    {
      "from": [6.5, 7, 6.5],
      "to": [9.5, 7, 9.5],
      "rotation": {"angle": 0, "axis": "y", "origin": [0, -1, 0]},
      "faces": {
        "north": {"uv": [0, 0, 3, 0], "texture": "mint"},
        "east": {"uv": [0, 0, 3, 0], "texture": "mint"},
        "south": {"uv": [0, 0, 3, 0], "texture": "mint"},
        "west": {"uv": [0, 0, 3, 0], "texture": "mint"},
        "up": {"uv": [13, 13, 16, 16], "texture": "mint"},
        "down": {"uv": [12, 10, 15, 13], "texture": "mint"}
      }
    },
    {
      "from": [2.8, 3.5, 6.5],
      "to": [2.8, 5.5, 9.5],
      "rotation": {"angle": 0, "axis": "y", "origin": [1.5, 7, 8]},
      "faces": {
        "north": {"uv": [0, 0, 1, 0], "rotation": 90, "texture": "mint"},
        "east": {"uv": [14, 6, 16, 9], "rotation": 90, "texture": "mint"},
        "south": {"uv": [0, 0, 1, 0], "rotation": 270, "texture": "mint"},
        "west": {"uv": [14, 1, 16, 4], "rotation": 90, "texture": "mint"},
        "up": {"uv": [0, 0, 3, 0], "rotation": 270, "texture": "mint"},
        "down": {"uv": [0, 0, 3, 0], "rotation": 270, "texture": "mint"}
      }
    },
    {
      "from": [2.5, 7, 5.5],
      "to": [6.5, 7, 10.5],
      "rotation": {"angle": 22.5, "axis": "z", "origin": [6.5, 7, 8]},
      "faces": {
        "north": {"uv": [9.5, 8, 13.5, 8], "texture": "mint"},
        "east": {"uv": [5.5, 8, 10.5, 8], "texture": "mint"},
        "south": {"uv": [2.5, 8, 6.5, 8], "texture": "mint"},
        "west": {"uv": [5.5, 8, 10.5, 8], "texture": "mint"},
        "up": {"uv": [10, 0, 14, 5], "rotation": 180, "texture": "mint"},
        "down": {"uv": [10, 5, 14, 10], "rotation": 180, "texture": "mint"}
      }
    },
    {
      "from": [8, -1, 3],
      "to": [8, 7, 13],
      "rotation": {"angle": 0, "axis": "y", "origin": [8, 3, 8]},
      "faces": {
        "north": {"uv": [0, 0, 0, 8], "texture": "mint"},
        "east": {"uv": [0, 0, 10, 8], "texture": "mint"},
        "south": {"uv": [0, 0, 0, 8], "texture": "mint"},
        "west": {"uv": [0, 0, 10, 8], "texture": "mint"},
        "up": {"uv": [10, 0, 0, 0], "rotation": 270, "texture": "mint"},
        "down": {"uv": [10, 0, 0, 0], "rotation": 90, "texture": "mint"}
      }
    },
    {
      "from": [3, -1, 8],
      "to": [13, 7, 8],
      "rotation": {"angle": 0, "axis": "y", "origin": [8, 3, 8]},
      "faces": {
        "north": {"uv": [0, 0, 10, 8], "texture": "mint"},
        "east": {"uv": [0, 0, 0, 8], "texture": "mint"},
        "south": {"uv": [0, 0, 10, 8], "texture": "mint"},
        "west": {"uv": [0, 0, 0, 8], "texture": "mint"},
        "up": {"uv": [10, 0, 0, 0], "texture": "mint"},
        "down": {"uv": [10, 0, 0, 0], "texture": "mint"}
      }
    },
    {
      "from": [13.2, 3.5, 6.5],
      "to": [13.2, 5.5, 9.5],
      "rotation": {"angle": 0, "axis": "y", "origin": [4.5, 7, 8]},
      "faces": {
        "north": {"uv": [0, 0, 1, 0], "rotation": 270, "texture": "mint"},
        "east": {"uv": [14, 1, 16, 4], "rotation": 90, "texture": "mint"},
        "south": {"uv": [0, 0, 1, 0], "rotation": 90, "texture": "mint"},
        "west": {"uv": [14, 6, 16, 9], "rotation": 90, "texture": "mint"},
        "up": {"uv": [0, 0, 3, 0], "rotation": 90, "texture": "mint"},
        "down": {"uv": [0, 0, 3, 0], "rotation": 90, "texture": "mint"}
      }
    },
    {
      "from": [9.5, 7, 5.5],
      "to": [13.5, 7, 10.5],
      "rotation": {"angle": -22.5, "axis": "z", "origin": [9.5, 7, 8]},
      "faces": {
        "north": {"uv": [2.5, 8, 6.5, 8], "texture": "mint"},
        "east": {"uv": [5.5, 8, 10.5, 8], "texture": "mint"},
        "south": {"uv": [9.5, 8, 13.5, 8], "texture": "mint"},
        "west": {"uv": [5.5, 8, 10.5, 8], "texture": "mint"},
        "up": {"uv": [10, 0, 14, 5], "texture": "mint"},
        "down": {"uv": [10, 5, 14, 10], "texture": "mint"}
      }
    },
    {
      "from": [5.5, 7, 2.5],
      "to": [10.5, 7, 6.5],
      "rotation": {"angle": -22.5, "axis": "x", "origin": [8, 7, 6.5]},
      "faces": {
        "north": {"uv": [5.5, 8, 10.5, 8], "texture": "mint"},
        "east": {"uv": [9.5, 8, 13.5, 8], "texture": "mint"},
        "south": {"uv": [5.5, 8, 10.5, 8], "texture": "mint"},
        "west": {"uv": [2.5, 8, 6.5, 8], "texture": "mint"},
        "up": {"uv": [10, 0, 14, 5], "rotation": 270, "texture": "mint"},
        "down": {"uv": [10, 5, 14, 10], "rotation": 90, "texture": "mint"}
      }
    },
    {
      "from": [6.5, 3.5, 2.8],
      "to": [9.5, 5.5, 2.8],
      "rotation": {"angle": 0, "axis": "y", "origin": [13.2, 5.5, 8]},
      "faces": {
        "north": {"uv": [14, 1, 16, 4], "rotation": 90, "texture": "mint"},
        "east": {"uv": [0, 0, 1, 0], "rotation": 90, "texture": "mint"},
        "south": {"uv": [14, 6, 16, 9], "rotation": 90, "texture": "mint"},
        "west": {"uv": [0, 0, 1, 0], "rotation": 270, "texture": "mint"},
        "up": {"uv": [0, 0, 3, 0], "texture": "mint"},
        "down": {"uv": [0, 0, 3, 0], "rotation": 180, "texture": "mint"}
      }
    },
    {
      "from": [5.5, 7, 9.5],
      "to": [10.5, 7, 13.5],
      "rotation": {"angle": 22.5, "axis": "x", "origin": [8, 7, 9.5]},
      "faces": {
        "north": {"uv": [5.5, 8, 10.5, 8], "texture": "mint"},
        "east": {"uv": [2.5, 8, 6.5, 8], "texture": "mint"},
        "south": {"uv": [5.5, 8, 10.5, 8], "texture": "mint"},
        "west": {"uv": [9.5, 8, 13.5, 8], "texture": "mint"},
        "up": {"uv": [10, 0, 14, 5], "rotation": 90, "texture": "mint"},
        "down": {"uv": [10, 5, 14, 10], "rotation": 270, "texture": "mint"}
      }
    },
    {
      "from": [6.5, 3.5, 13.2],
      "to": [9.5, 5.5, 13.2],
      "rotation": {"angle": 0, "axis": "y", "origin": [13.2, 5.5, 8]},
      "faces": {
        "north": {"uv": [14, 6, 16, 9], "rotation": 90, "texture": "mint"},
        "east": {"uv": [0, 0, 1, 0], "rotation": 90, "texture": "mint"},
        "south": {"uv": [14, 1, 16, 4], "rotation": 90, "texture": "mint"},
        "west": {"uv": [0, 0, 1, 0], "rotation": 270, "texture": "mint"},
        "up": {"uv": [0, 0, 3, 0], "texture": "mint"},
        "down": {"uv": [0, 0, 3, 0], "rotation": 180, "texture": "mint"}
      }
    },
    {
      "from": [7.5, 7, 6],
      "to": [8.5, 7, 8],
      "rotation": {"angle": 45, "axis": "x", "origin": [8, 7, 8]},
      "faces": {
        "north": {"uv": [0, 0, 1, 0], "texture": "mint"},
        "east": {"uv": [0, 0, 2, 0], "texture": "mint"},
        "south": {"uv": [0, 0, 1, 0], "texture": "mint"},
        "west": {"uv": [0, 0, 2, 0], "texture": "mint"},
        "up": {"uv": [15, 9, 16, 11], "texture": "mint"},
        "down": {"uv": [15, 9, 16, 11], "texture": "mint"}
      }
    },
    {
      "from": [7.5, 7, 8],
      "to": [8.5, 7, 10],
      "rotation": {"angle": -45, "axis": "x", "origin": [8, 7, 8]},
      "faces": {
        "north": {"uv": [0, 0, 1, 0], "texture": "mint"},
        "east": {"uv": [0, 0, 2, 0], "texture": "mint"},
        "south": {"uv": [0, 0, 1, 0], "texture": "mint"},
        "west": {"uv": [0, 0, 2, 0], "texture": "mint"},
        "up": {"uv": [15, 9, 16, 11], "rotation": 180, "texture": "mint"},
        "down": {"uv": [15, 9, 16, 11], "rotation": 180, "texture": "mint"}
      }
    }
  ],
  "display": {
    "thirdperson_righthand": {
      "translation": [0, 4, 1]
    },
    "ground": {
      "translation": [0, 5.5, 0]
    },
    "gui": {
      "rotation": [45, 45, 0],
      "translation": [0, 2.75, 0]
    },
    "head": {
      "translation": [0, 15, 0]
    }
  },
  "groups": [
    {
      "name": "mint4",
      "origin": [8, 8, 8],
      "color": 0,
      "children": [0, 1, 2, 3, 4, 5, 6, 7, 8, 9, 10, 11, 12]
    }
  ]
}